%YAML 1.1
%TAG !u! tag:unity3d.com,2011:
--- !u!114 &11400000
MonoBehaviour:
  m_ObjectHideFlags: 0
  m_CorrespondingSourceObject: {fileID: 0}
  m_PrefabInstance: {fileID: 0}
  m_PrefabAsset: {fileID: 0}
  m_GameObject: {fileID: 0}
  m_Enabled: 1
  m_EditorHideFlags: 0
  m_Script: {fileID: 11500000, guid: 9aa6100d5219ab549810cea623d2c4c5, type: 3}
  m_Name: UniversalDevicePreviewConfig
  m_EditorClassIdentifier: 
  m_Config:
    m_DestinationFolder: 3
    m_RelativePath: Screenshots/Universal
    m_RootedPath: 
    m_FileName: '{name}'
    m_OverrideFiles: 0
    m_FileFormat: 0
    m_JPGQuality: 75
    m_CaptureMode: 0
    m_MultisamplingAntiAliasing: 8
    m_ColorFormat: 0
    m_RecomputeAlphaLayer: 0
    m_ShotMode: 0
    m_MaxBurstShotsNumber: 20
    m_ShotTimeStep: 0.25
    m_CameraMode: 0
    m_ExportToDifferentLayers: 0
    m_Cameras:
    - m_Active: 1
      m_Camera: {fileID: 0}
      m_ClearSettings: 1
      m_ClearFlags: 2
      m_BackgroundColor: {r: 0.24137926, g: 0, b: 1, a: 1}
      m_CullingSettings: 0
      m_CullingMask: -1
      m_FOVSettings: 0
      m_FOV: 70
    m_ResolutionCaptureMode: 1
    m_Resolutions:
    - m_Active: 1
      m_Width: 1920
      m_Height: 1080
      m_Scale: 1
      m_Orientation: 1
      m_ResolutionName: Apple iPhone 6 Plus
      m_Category: Devices/Apple/iPhone
      m_Platform: iOS
      m_PPI: 401
      m_ForcedUnityPPI: 0
      m_DeviceCanvas: {fileID: 22351862, guid: 22d96f62df8686948aaced7112a08f4e, type: 3}
      m_Ratio: 16:9
      m_FileName: 
      m_IgnoreOrientation: 0
      m_SafeAreaPortrait:
        serializedVersion: 2
        x: 0
        y: 0
        width: 0
        height: 0
      m_SafeAreaLandscapeLeft:
        serializedVersion: 2
        x: 0
        y: 0
        width: 0
        height: 0
      m_SafeAreaLandscapeRight:
        serializedVersion: 2
        x: 0
        y: 0
        width: 0
        height: 0
    - m_Active: 1
      m_Width: 1334
      m_Height: 750
      m_Scale: 1
      m_Orientation: 1
      m_ResolutionName: Apple iPhone 6
      m_Category: Devices/Apple/iPhone
      m_Platform: iOS
      m_PPI: 326
      m_ForcedUnityPPI: 0
      m_DeviceCanvas: {fileID: 22351862, guid: d894d1e726c463043a0c33e203b8e6c4, type: 3}
      m_Ratio: 667:375
      m_FileName: 
      m_IgnoreOrientation: 0
      m_SafeAreaPortrait:
        serializedVersion: 2
        x: 0
        y: 0
        width: 0
        height: 0
      m_SafeAreaLandscapeLeft:
        serializedVersion: 2
        x: 0
        y: 0
        width: 0
        height: 0
      m_SafeAreaLandscapeRight:
        serializedVersion: 2
        x: 0
        y: 0
        width: 0
        height: 0
    - m_Active: 1
      m_Width: 1920
      m_Height: 1080
      m_Scale: 1
      m_Orientation: 1
      m_ResolutionName: Apple iPhone 6S Plus
      m_Category: Devices/Apple/iPhone
      m_Platform: iOS
      m_PPI: 401
      m_ForcedUnityPPI: 0
      m_DeviceCanvas: {fileID: 22351862, guid: 22d96f62df8686948aaced7112a08f4e, type: 3}
      m_Ratio: 16:9
      m_FileName: 
      m_IgnoreOrientation: 0
      m_SafeAreaPortrait:
        serializedVersion: 2
        x: 0
        y: 0
        width: 0
        height: 0
      m_SafeAreaLandscapeLeft:
        serializedVersion: 2
        x: 0
        y: 0
        width: 0
        height: 0
      m_SafeAreaLandscapeRight:
        serializedVersion: 2
        x: 0
        y: 0
        width: 0
        height: 0
    - m_Active: 1
      m_Width: 1334
      m_Height: 750
      m_Scale: 1
      m_Orientation: 1
      m_ResolutionName: Apple iPhone 6S
      m_Category: Devices/Apple/iPhone
      m_Platform: iOS
      m_PPI: 326
      m_ForcedUnityPPI: 0
      m_DeviceCanvas: {fileID: 22351862, guid: d894d1e726c463043a0c33e203b8e6c4, type: 3}
      m_Ratio: 667:375
      m_FileName: 
      m_IgnoreOrientation: 0
      m_SafeAreaPortrait:
        serializedVersion: 2
        x: 0
        y: 0
        width: 0
        height: 0
      m_SafeAreaLandscapeLeft:
        serializedVersion: 2
        x: 0
        y: 0
        width: 0
        height: 0
      m_SafeAreaLandscapeRight:
        serializedVersion: 2
        x: 0
        y: 0
        width: 0
        height: 0
    - m_Active: 1
      m_Width: 1920
      m_Height: 1080
      m_Scale: 1
      m_Orientation: 1
      m_ResolutionName: Apple iPhone 7 Plus
      m_Category: Devices/Apple/iPhone
      m_Platform: iOS
      m_PPI: 401
      m_ForcedUnityPPI: 0
      m_DeviceCanvas: {fileID: 22387522, guid: 62ef3e7a9aa3c184e9fdce2f87e2a31e, type: 3}
      m_Ratio: 16:9
      m_FileName: 
      m_IgnoreOrientation: 0
      m_SafeAreaPortrait:
        serializedVersion: 2
        x: 0
        y: 0
        width: 0
        height: 0
      m_SafeAreaLandscapeLeft:
        serializedVersion: 2
        x: 0
        y: 0
        width: 0
        height: 0
      m_SafeAreaLandscapeRight:
        serializedVersion: 2
        x: 0
        y: 0
        width: 0
        height: 0
    - m_Active: 1
      m_Width: 1334
      m_Height: 750
      m_Scale: 1
      m_Orientation: 1
      m_ResolutionName: Apple iPhone 7
      m_Category: Devices/Apple/iPhone
      m_Platform: iOS
      m_PPI: 326
      m_ForcedUnityPPI: 0
      m_DeviceCanvas: {fileID: 22316340, guid: e92c85b20b29ef44f9eae4be39fca20e, type: 3}
      m_Ratio: 667:375
      m_FileName: 
      m_IgnoreOrientation: 0
      m_SafeAreaPortrait:
        serializedVersion: 2
        x: 0
        y: 0
        width: 0
        height: 0
      m_SafeAreaLandscapeLeft:
        serializedVersion: 2
        x: 0
        y: 0
        width: 0
        height: 0
      m_SafeAreaLandscapeRight:
        serializedVersion: 2
        x: 0
        y: 0
        width: 0
        height: 0
    - m_Active: 1
      m_Width: 1920
      m_Height: 1080
      m_Scale: 1
      m_Orientation: 1
      m_ResolutionName: Apple iPhone 8 Plus
      m_Category: Devices/Apple/iPhone
      m_Platform: iOS
      m_PPI: 401
      m_ForcedUnityPPI: 0
      m_DeviceCanvas: {fileID: 22326366, guid: aaea7d8408fb8f5408826377de04583f, type: 3}
      m_Ratio: 16:9
      m_FileName: 
      m_IgnoreOrientation: 0
      m_SafeAreaPortrait:
        serializedVersion: 2
        x: 0
        y: 0
        width: 0
        height: 0
      m_SafeAreaLandscapeLeft:
        serializedVersion: 2
        x: 0
        y: 0
        width: 0
        height: 0
      m_SafeAreaLandscapeRight:
        serializedVersion: 2
        x: 0
        y: 0
        width: 0
        height: 0
    - m_Active: 1
      m_Width: 1334
      m_Height: 750
      m_Scale: 1
      m_Orientation: 1
      m_ResolutionName: Apple iPhone 8
      m_Category: Devices/Apple/iPhone
      m_Platform: iOS
      m_PPI: 326
      m_ForcedUnityPPI: 0
      m_DeviceCanvas: {fileID: 22301950, guid: ba8ee4dbf9e292e4995d01f0a50e0a10, type: 3}
      m_Ratio: 667:375
      m_FileName: 
      m_IgnoreOrientation: 0
      m_SafeAreaPortrait:
        serializedVersion: 2
        x: 0
        y: 0
        width: 0
        height: 0
      m_SafeAreaLandscapeLeft:
        serializedVersion: 2
        x: 0
        y: 0
        width: 0
        height: 0
      m_SafeAreaLandscapeRight:
        serializedVersion: 2
        x: 0
        y: 0
        width: 0
        height: 0
    - m_Active: 1
      m_Width: 2688
      m_Height: 1242
      m_Scale: 1
      m_Orientation: 1
      m_ResolutionName: Apple iPhone 11 Pro Max
      m_Category: Devices/Apple/iPhone
      m_Platform: iOS
      m_PPI: 456
      m_ForcedUnityPPI: 0
      m_DeviceCanvas: {fileID: 22333258, guid: 6c29deb4f6d80514899d6ab08938d695, type: 3}
      m_Ratio: 448:207
      m_FileName: 
      m_IgnoreOrientation: 0
      m_SafeAreaPortrait:
        serializedVersion: 2
        x: 0
        y: 102
        width: 1242
        height: 2454
      m_SafeAreaLandscapeLeft:
        serializedVersion: 2
        x: 132
        y: 63
        width: 2424
        height: 1179
      m_SafeAreaLandscapeRight:
        serializedVersion: 2
        x: 0
        y: 0
        width: 0
        height: 0
    - m_Active: 1
      m_Width: 2436
      m_Height: 1125
      m_Scale: 1
      m_Orientation: 1
      m_ResolutionName: Apple iPhone 11 Pro
      m_Category: Devices/Apple/iPhone
      m_Platform: iOS
      m_PPI: 463
      m_ForcedUnityPPI: 0
      m_DeviceCanvas: {fileID: 22333258, guid: 6c29deb4f6d80514899d6ab08938d695, type: 3}
      m_Ratio: 812:375
      m_FileName: 
      m_IgnoreOrientation: 0
      m_SafeAreaPortrait:
        serializedVersion: 2
        x: 0
        y: 102
        width: 1125
        height: 2202
      m_SafeAreaLandscapeLeft:
        serializedVersion: 2
        x: 132
        y: 63
        width: 2172
        height: 1062
      m_SafeAreaLandscapeRight:
        serializedVersion: 2
        x: 0
        y: 0
        width: 0
        height: 0
    - m_Active: 1
      m_Width: 1792
      m_Height: 828
      m_Scale: 1
      m_Orientation: 1
      m_ResolutionName: Apple iPhone 11
      m_Category: Devices/Apple/iPhone
      m_Platform: iOS
      m_PPI: 324
      m_ForcedUnityPPI: 0
      m_DeviceCanvas: {fileID: 22333258, guid: 6c29deb4f6d80514899d6ab08938d695, type: 3}
      m_Ratio: 448:207
      m_FileName: 
      m_IgnoreOrientation: 0
      m_SafeAreaPortrait:
        serializedVersion: 2
        x: 0
        y: 68
        width: 828
        height: 1636
      m_SafeAreaLandscapeLeft:
        serializedVersion: 2
        x: 88
        y: 42
        width: 1616
        height: 786
      m_SafeAreaLandscapeRight:
        serializedVersion: 2
        x: 0
        y: 0
        width: 0
        height: 0
    - m_Active: 1
      m_Width: 1136
      m_Height: 640
      m_Scale: 1
      m_Orientation: 1
      m_ResolutionName: Apple iPhone SE
      m_Category: Devices/Apple/iPhone
      m_Platform: iOS
      m_PPI: 326
      m_ForcedUnityPPI: 0
      m_DeviceCanvas: {fileID: 22395588, guid: 7e06e659b2f74b44fa6bbb4c56bd80fd, type: 3}
      m_Ratio: 71:40
      m_FileName: 
      m_IgnoreOrientation: 0
      m_SafeAreaPortrait:
        serializedVersion: 2
        x: 0
        y: 0
        width: 0
        height: 0
      m_SafeAreaLandscapeLeft:
        serializedVersion: 2
        x: 0
        y: 0
        width: 0
        height: 0
      m_SafeAreaLandscapeRight:
        serializedVersion: 2
        x: 0
        y: 0
        width: 0
        height: 0
    - m_Active: 1
      m_Width: 2436
      m_Height: 1125
      m_Scale: 1
      m_Orientation: 1
      m_ResolutionName: Apple iPhone X
      m_Category: Devices/Apple/iPhone
      m_Platform: iOS
      m_PPI: 459
      m_ForcedUnityPPI: 0
      m_DeviceCanvas: {fileID: 22333258, guid: 6c29deb4f6d80514899d6ab08938d695, type: 3}
      m_Ratio: 812:375
      m_FileName: 
      m_IgnoreOrientation: 0
      m_SafeAreaPortrait:
        serializedVersion: 2
        x: 0
        y: 102
        width: 1125
        height: 2202
      m_SafeAreaLandscapeLeft:
        serializedVersion: 2
        x: 132
        y: 63
        width: 2172
        height: 1062
      m_SafeAreaLandscapeRight:
        serializedVersion: 2
        x: 0
        y: 0
        width: 0
        height: 0
    - m_Active: 1
      m_Width: 1792
      m_Height: 828
      m_Scale: 1
      m_Orientation: 1
      m_ResolutionName: Apple iPhone XR
      m_Category: Devices/Apple/iPhone
      m_Platform: iOS
      m_PPI: 326
      m_ForcedUnityPPI: 0
      m_DeviceCanvas: {fileID: 22333258, guid: 6c29deb4f6d80514899d6ab08938d695, type: 3}
      m_Ratio: 448:207
      m_FileName: 
      m_IgnoreOrientation: 0
      m_SafeAreaPortrait:
        serializedVersion: 2
        x: 0
        y: 68
        width: 828
        height: 1636
      m_SafeAreaLandscapeLeft:
        serializedVersion: 2
        x: 88
        y: 42
        width: 1616
        height: 786
      m_SafeAreaLandscapeRight:
        serializedVersion: 2
        x: 88
        y: 42
        width: 1616
        height: 786
    - m_Active: 1
      m_Width: 2688
      m_Height: 1242
      m_Scale: 1
      m_Orientation: 1
      m_ResolutionName: Apple iPhone XS Max
      m_Category: Devices/Apple/iPhone
      m_Platform: iOS
      m_PPI: 458
      m_ForcedUnityPPI: 0
      m_DeviceCanvas: {fileID: 22333258, guid: 6c29deb4f6d80514899d6ab08938d695, type: 3}
      m_Ratio: 448:207
      m_FileName: 
      m_IgnoreOrientation: 0
      m_SafeAreaPortrait:
        serializedVersion: 2
        x: 0
        y: 102
        width: 1242
        height: 2454
      m_SafeAreaLandscapeLeft:
        serializedVersion: 2
        x: 132
        y: 63
        width: 2424
        height: 1179
      m_SafeAreaLandscapeRight:
        serializedVersion: 2
        x: 0
        y: 0
        width: 0
        height: 0
    - m_Active: 1
      m_Width: 2436
      m_Height: 1125
      m_Scale: 1
      m_Orientation: 1
      m_ResolutionName: Apple iPhone XS
      m_Category: Devices/Apple/iPhone
      m_Platform: iOS
      m_PPI: 458
      m_ForcedUnityPPI: 0
      m_DeviceCanvas: {fileID: 22333258, guid: 6c29deb4f6d80514899d6ab08938d695, type: 3}
      m_Ratio: 812:375
      m_FileName: 
      m_IgnoreOrientation: 0
      m_SafeAreaPortrait:
        serializedVersion: 2
        x: 0
        y: 102
        width: 1125
        height: 2202
      m_SafeAreaLandscapeLeft:
        serializedVersion: 2
        x: 132
        y: 63
        width: 2172
        height: 1062
      m_SafeAreaLandscapeRight:
        serializedVersion: 2
        x: 132
        y: 63
        width: 2172
        height: 1062
    m_GameViewResolution:
      m_Active: 1
      m_Width: 983
      m_Height: 701
      m_Scale: 1
      m_Orientation: 0
      m_ResolutionName: GameView
      m_Category: Custom
      m_Platform: Standalone
      m_PPI: 0
      m_ForcedUnityPPI: 0
      m_DeviceCanvas: {fileID: 0}
      m_Ratio: 4:3
      m_FileName: C:\Users\iron\Pictures/Screenshots/983x701-1 GameView LANDSCAPE.png
      m_IgnoreOrientation: 0
      m_SafeAreaPortrait:
        serializedVersion: 2
        x: 0
        y: 0
        width: 0
        height: 0
      m_SafeAreaLandscapeLeft:
        serializedVersion: 2
        x: 0
        y: 0
        width: 0
        height: 0
      m_SafeAreaLandscapeRight:
        serializedVersion: 2
        x: 0
        y: 0
        width: 0
        height: 0
    m_CaptureActiveUICanvas: 1
    m_Overlays:
    - m_Canvas: {fileID: 0}
      m_Active: 0
    m_CompositionMode: 0
    m_Compositions: []
    m_BatchMode: 0
    m_Batches: []
    m_ShowGuidesInPreview: 0
    m_GuideCanvas: {fileID: 0}
    m_GuidesColor: {r: 1, g: 1, b: 1, a: 1}
    m_ShowPreview: 1
    m_PreviewSize: 1
    m_PreviewInGameViewWhilePlaying: 0
    m_DontDestroyOnLoad: 1
    m_StopTimeOnCapture: 0
    m_PlaySoundOnCapture: 0
    m_ShotSound: {fileID: 0}
    m_CaptureHotkey:
      m_Shift: 0
      m_Control: 0
      m_Alt: 0
      m_Key: 0
    m_UpdatePreviewHotkey:
      m_Shift: 0
      m_Control: 0
      m_Alt: 0
      m_Key: 0
    m_AlignHotkey:
      m_Shift: 0
      m_Control: 0
      m_Alt: 0
      m_Key: 0
    m_PauseHotkey:
      m_Shift: 0
      m_Control: 0
      m_Alt: 0
      m_Key: 0
    m_GameViewResizingWaitingMode: 0
    m_ResizingWaitingTime: 2
    m_ResizingWaitingFrames: 5
    m_ShowDestination: 1
    m_ShowName: 1
    m_ShowCaptureMode: 1
    m_ShowResolutions: 1
    m_ShowCameras: 1
    m_ShowCanvas: 1
    m_ShowComposition: 1
    m_ShowBatches: 1
    m_ShowPreviewGUI: 1
    m_ShowCapture: 1
    m_ShowHotkeys: 1
    m_ShowGallery: 1
    m_ShowUtils: 1
    m_ShowUsage: 1
    m_ShowDelay: 1
  m_ScreenPPI: 130
  m_ZoomScrollSpeed: 0.01
  m_MarginHorizontal: 10
  m_MarginVertical: 30
  m_GalleryPaddingVertical: 10
  m_GalleryTextHeight: 30
  m_GalleryBorderSize: 2
  m_Selected: 8
  m_PreviewGalleryZoom: 1
  m_PreviewZoom: 0.63
  m_RefreshMode: 0
  m_AutoRefresh: 0
  m_RefreshDelay: 5.56
  m_GalleryDisplayMode: 2
  m_PreviewDisplayMode: 2
  m_DrawingMode: 2
  m_DeviceRendererCamera: {fileID: 2009090, guid: 277a80b5609ce0441a8f4b6e014524f1,
    type: 3}
  m_DefaultDeviceCanvas: {fileID: 22333258, guid: 1c3e759c6432d0d45bbb466445ec03c5,
    type: 3}
  m_TransparentDeviceBackground: 0
  m_DrawSafeArea: 1
  m_SafeAreaCanvas: {fileID: 223366713027128130, guid: de52309f8dae51e4babb47a313c72eef,
    type: 3}
  m_ShowGallery: 1
  m_ExpandDevices: 1
  m_AutoGenerateEmptyPreview: 1
  m_BackupPreviewToDisk: 1
